…
    ## Rows: 100,004
    ## Columns: 7
    ## $ movieId   <int> 31, 1029, 1061, 1129, 1172, 1263, 1287, 1293, 1339, 1343, 13…
    ## $ title     <chr> "Dangerous Minds", "Dumbo", "Sleepers", "Escape from New Yor…
    ## $ year      <int> 1995, 1941, 1996, 1981, 1989, 1978, 1959, 1982, 1992, 1991, …
    ## $ genres    <fct> Drama, Animation|Children|Drama|Musical, Thriller, Action|Ad…
    ## $ userId    <int> 1, 1, 1, 1, 1, 1, 1, 1, 1, 1, 1, 1, 1, 1, 1, 1, 1, 1, 1, 1, …
    ## $ rating    <dbl> 2.5, 3.0, 3.0, 2.0, 4.0, 2.0, 2.0, 2.0, 3.5, 2.0, 2.5, 1.0, …
    ## $ timestamp <int> 1260759144, 1260759179, 1260759182, 1260759185, 1260759205, …

``` r
print(movieLens)
```

    ## # A tibble: 100,004 × 7
    ##    movieId title                               year genres userId rating times…¹
    ##      <int> <chr>                              <int> <fct>   <int>  <dbl>   <int>
    ##  1      31 Dangerous Minds                     1995 Drama       1    2.5  1.26e9
    ##  2    1029 Dumbo                               1941 Anima…      1    3    1.26e9
    ##  3    1061 Sleepers                            1996 Thril…      1    3    1.26e9
    ##  4    1129 Escape from New York                1981 Actio…      1    2    1.26e9
    ##  5    1172 Cinema Paradiso (Nuovo cinema Par…  1989 Drama       1    4    1.26e9
    ##  6    1263 Deer Hunter, The                    1978 Drama…      1    2    1.26e9
    ##  7    1287 Ben-Hur                             1959 Actio…      1    2    1.26e9
    ##  8    1293 Gandhi                              1982 Drama       1    2    1.26e9
    ##  9    1339 Dracula (Bram Stoker's Dracula)     1992 Fanta…      1    3.5  1.26e9
    ## 10    1343 Cape Fear                           1991 Thril…      1    2    1.26e9
    ## # … with 99,994 more rows, and abbreviated variable name ¹​timestamp
…
- belong *exclusively* to the genre *“Drama”*;
- don’t belong *exclusively* to the genre *“Drama”*;
- were filmed *after* the year 2000;
- were filmed in 1999 *or* 2000;
- have *more than* 4.5 stars, and were filmed *before* 1995.

``` r
### GRACE FIXED ERROR ###
filter(movieLens, genres == "Drama")
```

    ## # A tibble: 7,757 × 7
    ##    movieId title                               year genres userId rating times…¹
    ##      <int> <chr>                              <int> <fct>   <int>  <dbl>   <int>
    ##  1      31 Dangerous Minds                     1995 Drama       1    2.5  1.26e9
    ##  2    1172 Cinema Paradiso (Nuovo cinema Par…  1989 Drama       1    4    1.26e9
    ##  3    1293 Gandhi                              1982 Drama       1    2    1.26e9
    ##  4      62 Mr. Holland's Opus                  1995 Drama       2    3    8.35e8
    ##  5     261 Little Women                        1994 Drama       2    4    8.35e8
    ##  6     300 Quiz Show                           1994 Drama       2    3    8.35e8
    ##  7     508 Philadelphia                        1993 Drama       2    4    8.35e8
    ##  8     537 Sirens                              1994 Drama       2    4    8.35e8
    ##  9    2702 Summer of Sam                       1999 Drama       3    3.5  1.30e9
    ## 10    3949 Requiem for a Dream                 2000 Drama       3    5    1.30e9
    ## # … with 7,747 more rows, and abbreviated variable name ¹​timestamp

``` r
filter(movieLens, !genres == "Drama")
```

    ## # A tibble: 92,247 × 7
    ##    movieId title                            year genres    userId rating times…¹
    ##      <int> <chr>                           <int> <fct>      <int>  <dbl>   <int>
    ##  1    1029 Dumbo                            1941 Animatio…      1    3    1.26e9
    ##  2    1061 Sleepers                         1996 Thriller       1    3    1.26e9
    ##  3    1129 Escape from New York             1981 Action|A…      1    2    1.26e9
    ##  4    1263 Deer Hunter, The                 1978 Drama|War      1    2    1.26e9
    ##  5    1287 Ben-Hur                          1959 Action|A…      1    2    1.26e9
    ##  6    1339 Dracula (Bram Stoker's Dracula)  1992 Fantasy|…      1    3.5  1.26e9
    ##  7    1343 Cape Fear                        1991 Thriller       1    2    1.26e9
    ##  8    1371 Star Trek: The Motion Picture    1979 Adventur…      1    2.5  1.26e9
    ##  9    1405 Beavis and Butt-Head Do America  1996 Adventur…      1    1    1.26e9
    ## 10    1953 French Connection, The           1971 Action|C…      1    4    1.26e9
    ## # … with 92,237 more rows, and abbreviated variable name ¹​timestamp

``` r
filter(movieLens, year > 2000)
```

    ## # A tibble: 25,481 × 7
    ##    movieId title                               year genres userId rating times…¹
    ##      <int> <chr>                              <int> <fct>   <int>  <dbl>   <int>
    ##  1    5349 Spider-Man                          2002 Actio…      3    3    1.30e9
    ##  2    5669 Bowling for Columbine               2002 Docum…      3    3.5  1.30e9
    ##  3    6377 Finding Nemo                        2003 Adven…      3    3    1.30e9
    ##  4    7153 Lord of the Rings: The Return of …  2003 Actio…      3    2.5  1.30e9
    ##  5    7361 Eternal Sunshine of the Spotless …  2004 Drama…      3    3    1.30e9
    ##  6    8622 Fahrenheit 9/11                     2004 Docum…      3    3.5  1.30e9
    ##  7    8636 Spider-Man 2                        2004 Actio…      3    3    1.30e9
    ##  8   44191 V for Vendetta                      2006 Actio…      3    3.5  1.30e9
    ##  9   48783 Flags of Our Fathers                2006 Drama…      3    4.5  1.30e9
    ## 10   50068 Letters from Iwo Jima               2006 Drama…      3    4.5  1.30e9
    ## # … with 25,471 more rows, and abbreviated variable name ¹​timestamp

``` r
filter(movieLens, year == 1999 | year == 2000)
```

    ## # A tibble: 9,088 × 7
    ##    movieId title                               year genres userId rating times…¹
    ##      <int> <chr>                              <int> <fct>   <int>  <dbl>   <int>
    ##  1    2694 Big Daddy                           1999 Comedy      3    3    1.30e9
    ##  2    2702 Summer of Sam                       1999 Drama       3    3.5  1.30e9
    ##  3    2762 Sixth Sense, The                    1999 Drama…      3    3.5  1.30e9
    ##  4    2841 Stir of Echoes                      1999 Horro…      3    4    1.30e9
    ##  5    2858 American Beauty                     1999 Drama…      3    4    1.30e9
    ##  6    2959 Fight Club                          1999 Actio…      3    5    1.30e9
    ##  7    3510 Frequency                           2000 Drama…      3    4    1.30e9
    ##  8    3949 Requiem for a Dream                 2000 Drama       3    5    1.30e9
    ##  9   27369 Daria: Is It Fall Yet?              2000 Anima…      3    3.5  1.30e9
    ## 10    2628 Star Wars: Episode I - The Phanto…  1999 Actio…      4    5    9.50e8
    ## # … with 9,078 more rows, and abbreviated variable name ¹​timestamp

``` r
filter(movieLens, rating > 4.5 & year < 1995)
```

    ## # A tibble: 8,386 × 7
    ##    movieId title                               year genres userId rating times…¹
    ##      <int> <chr>                              <int> <fct>   <int>  <dbl>   <int>
    ##  1     265 Like Water for Chocolate (Como ag…  1992 Drama…      2      5  8.35e8
    ##  2     266 Legends of the Fall                 1994 Drama…      2      5  8.35e8
    ##  3     551 Nightmare Before Christmas, The     1993 Anima…      2      5  8.35e8
    ##  4     589 Terminator 2: Judgment Day          1991 Actio…      2      5  8.35e8
    ##  5     590 Dances with Wolves                  1990 Adven…      2      5  8.35e8
    ##  6     592 Batman                              1989 Actio…      2      5  8.35e8
    ##  7     318 Shawshank Redemption, The           1994 Crime…      3      5  1.30e9
    ##  8     356 Forrest Gump                        1994 Comed…      3      5  1.30e9
    ##  9    1197 Princess Bride, The                 1987 Actio…      3      5  1.30e9
    ## 10     260 Star Wars: Episode IV - A New Hope  1977 Actio…      4      5  9.50e8
    ## # … with 8,376 more rows, and abbreviated variable name ¹​timestamp
…
``` r
### GRACE FIXED ERROR ###
movieLens %>%
  filter(!genres == "Drama") %>%
  select(title, genres, everything())
```

    ## # A tibble: 92,247 × 7
    ##    title                           genres    movieId  year userId rating times…¹
    ##    <chr>                           <fct>       <int> <int>  <int>  <dbl>   <int>
    ##  1 Dumbo                           Animatio…    1029  1941      1    3    1.26e9
    ##  2 Sleepers                        Thriller     1061  1996      1    3    1.26e9
    ##  3 Escape from New York            Action|A…    1129  1981      1    2    1.26e9
    ##  4 Deer Hunter, The                Drama|War    1263  1978      1    2    1.26e9
    ##  5 Ben-Hur                         Action|A…    1287  1959      1    2    1.26e9
    ##  6 Dracula (Bram Stoker's Dracula) Fantasy|…    1339  1992      1    3.5  1.26e9
    ##  7 Cape Fear                       Thriller     1343  1991      1    2    1.26e9
    ##  8 Star Trek: The Motion Picture   Adventur…    1371  1979      1    2.5  1.26e9
    ##  9 Beavis and Butt-Head Do America Adventur…    1405  1996      1    1    1.26e9
    ## 10 French Connection, The          Action|C…    1953  1971      1    4    1.26e9
    ## # … with 92,237 more rows, and abbreviated variable name ¹​timestamp
## Exercise 2: Calculating with `mutate()`-like functions

Some of the variables in the `movieLens` dataset are in *camelCase* (in
fact, *movieLens* is in camelCase). Let’s clean these two variables to
use *snake_case* instead, and assign our post-rename object back to
“movieLens”.

``` r
### GRACE FIXED ERROR ###
movieLens %>%
  rename(user_id = userId,
         movie_id = movieId)
```

    ## # A tibble: 100,004 × 7
    ##    movie_id title                             year genres user_id rating times…¹
    ##       <int> <chr>                            <int> <fct>    <int>  <dbl>   <int>
    ##  1       31 Dangerous Minds                   1995 Drama        1    2.5  1.26e9
    ##  2     1029 Dumbo                             1941 Anima…       1    3    1.26e9
    ##  3     1061 Sleepers                          1996 Thril…       1    3    1.26e9
    ##  4     1129 Escape from New York              1981 Actio…       1    2    1.26e9
    ##  5     1172 Cinema Paradiso (Nuovo cinema P…  1989 Drama        1    4    1.26e9
    ##  6     1263 Deer Hunter, The                  1978 Drama…       1    2    1.26e9
    ##  7     1287 Ben-Hur                           1959 Actio…       1    2    1.26e9
    ##  8     1293 Gandhi                            1982 Drama        1    2    1.26e9
    ##  9     1339 Dracula (Bram Stoker's Dracula)   1992 Fanta…       1    3.5  1.26e9
    ## 10     1343 Cape Fear                         1991 Thril…       1    2    1.26e9
    ## # … with 99,994 more rows, and abbreviated variable name ¹​timestamp

As you already know, `mutate()` defines and inserts new variables into a
tibble. There is *another mystery function similar to `mutate()`* that
adds the new variable, but also drops existing ones. I wanted to create
an `average_rating` column that takes the `mean(rating)` across all
entries, and I only want to see that variable (i.e drop all others!) but
I forgot what that mystery function is. Can you remember?

``` r
### Tom fixed error ### 
movieLens %>%
  transmute(average_rating = mean(rating))
```

    ## # A tibble: 100,004 × 1
    ##    average_rating
    ##             <dbl>
    ##  1           3.54
    ##  2           3.54
    ##  3           3.54
    ##  4           3.54
    ##  5           3.54
    ##  6           3.54
    ##  7           3.54
    ##  8           3.54
    ##  9           3.54
    ## 10           3.54
    ## # … with 99,994 more rows
…
Each entry of the movieLens table corresponds to a movie rating by a
user. Therefore, if more than one user rated the same movie, there will
be several entries for the same movie. I want to find out how many times
each movie has been reviewed, or in other words, how many times each
movie title appears in the dataset.

``` r
movieLens %>%
  group_by(title) %>%
  tally()
```

    ## # A tibble: 8,832 × 2
    ##    title                                  n
    ##    <chr>                              <int>
    ##  1 "'burbs, The"                         19
    ##  2 "'Hellboy': The Seeds of Creation"     1
    ##  3 "'Neath the Arizona Skies"             1
    ##  4 "'night Mother"                        3
    ##  5 "'Round Midnight"                      2
    ##  6 "'Salem's Lot"                         1
    ##  7 "'Til There Was You"                   4
    ##  8 "\"Great Performances\" Cats"          2
    ##  9 "$9.99"                                3
    ## 10 "(500) Days of Summer"                45
    ## # … with 8,822 more rows

Without using `group_by()`, I want to find out how many movie reviews
there have been for each year.

``` r
### Tom fixed error ###
movieLens %>%
  count(year)
```

    ## # A tibble: 104 × 2
    ##     year     n
    ##    <int> <int>
    ##  1  1902     6
    ##  2  1915     2
    ##  3  1916     1
    ##  4  1917     2
    ##  5  1918     2
    ##  6  1919     1
    ##  7  1920    15
    ##  8  1921    12
    ##  9  1922    28
    ## 10  1923     3
    ## # … with 94 more rows

Both `count()` and `tally()` can be grouped by multiple columns. Below,
I want to count the number of movie reviews by title and rating, and
sort the results.

``` r
### Tom fixed error ###
movieLens %>%
  count(title, rating, sort = TRUE)
```

    ## # A tibble: 28,297 × 3
    ##    title                              rating     n
    ##    <chr>                               <dbl> <int>
    ##  1 Shawshank Redemption, The               5   170
    ##  2 Pulp Fiction                            5   138
    ##  3 Star Wars: Episode IV - A New Hope      5   122
    ##  4 Forrest Gump                            4   113
    ##  5 Schindler's List                        5   109
    ##  6 Godfather, The                          5   107
    ##  7 Forrest Gump                            5   102
    ##  8 Silence of the Lambs, The               4   102
    ##  9 Fargo                                   5   100
    ## 10 Silence of the Lambs, The               5   100
    ## # … with 28,287 more rows
…
## Exercise 4: Calculating with `group_by()`

We can calculate the mean rating by year, and store it in a new column
called `avg_rating`:

``` r
movieLens %>%
  group_by(year) %>%
  summarize(avg_rating = mean(rating))
```

    ## # A tibble: 104 × 2
    ##     year avg_rating
    ##    <int>      <dbl>
    ##  1  1902       4.33
    ##  2  1915       3   
    ##  3  1916       3.5 
    ##  4  1917       4.25
    ##  5  1918       4.25
    ##  6  1919       3   
    ##  7  1920       3.7 
    ##  8  1921       4.42
    ##  9  1922       3.80
    ## 10  1923       4.17
    ## # … with 94 more rows

Using `summarize()`, we can find the minimum and the maximum rating by
title, stored under columns named `min_rating`, and `max_rating`,
respectively.

``` r
### Tom fixed error ###
movieLens %>%
  group_by(title) %>%
  summarize(min_rating = min(rating), 
         max_rating = max(rating))
```

    ## # A tibble: 8,832 × 3
    ##    title                              min_rating max_rating
    ##    <chr>                                   <dbl>      <dbl>
    ##  1 "'burbs, The"                             1.5        4.5
    ##  2 "'Hellboy': The Seeds of Creation"        2          2  
    ##  3 "'Neath the Arizona Skies"                0.5        0.5
    ##  4 "'night Mother"                           5          5  
    ##  5 "'Round Midnight"                         0.5        4  
    ##  6 "'Salem's Lot"                            3.5        3.5
    ##  7 "'Til There Was You"                      0.5        4  
    ##  8 "\"Great Performances\" Cats"             0.5        3  
    ##  9 "$9.99"                                   2.5        4.5
    ## 10 "(500) Days of Summer"                    0.5        5  
    ## # … with 8,822 more rows
…
    ## Warning in min(x, na.rm = TRUE): ningún argumento finito para min; retornando
    ## Inf

    ## Warning in min(x, na.rm = TRUE): ningún argumento finito para min; retornando
    ## Inf

    ## Warning in min(x, na.rm = TRUE): ningún argumento finito para min; retornando
    ## Inf

    ## Warning in min(x, na.rm = TRUE): ningún argumento finito para min; retornando
    ## Inf

    ## # A tibble: 38 × 3
    ##    species   height  mass
    ##    <chr>      <int> <dbl>
    ##  1 Aleena        79    15
    ##  2 Besalisk     198   102
    ##  3 Cerean       198    82
    ##  4 Chagrian     196   Inf
    ##  5 Clawdite     168    55
    ##  6 Droid         96    32
    ##  7 Dug          112    40
    ##  8 Ewok          88    20
    ##  9 Geonosian    183    80
    ## 10 Gungan       196    66
    ## # … with 28 more rows
…
